3 Implementation of Spatial model with INLA and SPDE – INLA and Log Gaussian Cox Processes: Theory and Application
…
# 8 Nitrogen dioxide
# 5 Particulate matter < 10 µm
# 6001  Particulate matter < 2.5 µm
d %>% group_by(Samplingpoint) |> filter(Pollutant==6001, Value>-1) |> collect() -> df
df

# A tibble: 442,873 × 12
# Groups:   Samplingpoint [53]
   Samplingpoint   Pollutant Start               End                 Value Unit 
   <chr>               <int> <dttm>              <dttm>              <dbl> <chr>
 1 NL/SPO-NL00007…      6001 2023-01-01 01:00:00 2023-01-01 02:00:00 131.  ug.m…
 2 NL/SPO-NL00007…      6001 2023-01-01 02:00:00 2023-01-01 03:00:00  86.2 ug.m…
 3 NL/SPO-NL00007…      6001 2023-01-01 03:00:00 2023-01-01 04:00:00  30.7 ug.m…
 4 NL/SPO-NL00007…      6001 2023-01-01 04:00:00 2023-01-01 05:00:00  11   ug.m…
 5 NL/SPO-NL00007…      6001 2023-01-01 05:00:00 2023-01-01 06:00:00   9.1 ug.m…
 6 NL/SPO-NL00007…      6001 2023-01-01 06:00:00 2023-01-01 07:00:00   5.3 ug.m…
 7 NL/SPO-NL00007…      6001 2023-01-01 07:00:00 2023-01-01 08:00:00   2.8 ug.m…
 8 NL/SPO-NL00007…      6001 2023-01-01 08:00:00 2023-01-01 09:00:00   2.3 ug.m…
 9 NL/SPO-NL00007…      6001 2023-01-01 10:00:00 2023-01-01 11:00:00  -0.6 ug.m…
10 NL/SPO-NL00007…      6001 2023-01-01 11:00:00 2023-01-01 12:00:00   1.4 ug.m…
# ℹ 442,863 more rows
# ℹ 6 more variables: AggType <chr>, Validity <int>, Verification <int>,
#   ResultTime <dttm>, DataCapture <dbl>, FkObservationLog <chr>

Add locations to the sampling stations.

df

# A tibble: 442,873 × 12
# Groups:   Samplingpoint [53]
   Samplingpoint   Pollutant Start               End                 Value Unit 
   <chr>               <int> <dttm>              <dttm>              <dbl> <chr>
 1 NL/SPO-NL00007…      6001 2023-01-01 01:00:00 2023-01-01 02:00:00 131.  ug.m…
 2 NL/SPO-NL00007…      6001 2023-01-01 02:00:00 2023-01-01 03:00:00  86.2 ug.m…
 3 NL/SPO-NL00007…      6001 2023-01-01 03:00:00 2023-01-01 04:00:00  30.7 ug.m…
 4 NL/SPO-NL00007…      6001 2023-01-01 04:00:00 2023-01-01 05:00:00  11   ug.m…
 5 NL/SPO-NL00007…      6001 2023-01-01 05:00:00 2023-01-01 06:00:00   9.1 ug.m…
 6 NL/SPO-NL00007…      6001 2023-01-01 06:00:00 2023-01-01 07:00:00   5.3 ug.m…
 7 NL/SPO-NL00007…      6001 2023-01-01 07:00:00 2023-01-01 08:00:00   2.8 ug.m…
 8 NL/SPO-NL00007…      6001 2023-01-01 08:00:00 2023-01-01 09:00:00   2.3 ug.m…
 9 NL/SPO-NL00007…      6001 2023-01-01 10:00:00 2023-01-01 11:00:00  -0.6 ug.m…
10 NL/SPO-NL00007…      6001 2023-01-01 11:00:00 2023-01-01 12:00:00   1.4 ug.m…
# ℹ 442,863 more rows
# ℹ 6 more variables: AggType <chr>, Validity <int>, Verification <int>,
#   ResultTime <dttm>, DataCapture <dbl>, FkObservationLog <chr>
…
ℹ Use `spec()` to retrieve the full column specification for this data.
ℹ Specify the column types or set `show_col_types = FALSE` to quiet this message.

station_locations <- rename(station_locations, Samplingpoint = 'Sampling Point Id')
station_locations %>% 
  distinct(Samplingpoint, Longitude, Latitude) -> unique_locations
merged_df <- df %>% 
  left_join(unique_locations %>% select(Samplingpoint, Longitude, Latitude), by = "Samplingpoint")
merged_df

# A tibble: 442,873 × 14
# Groups:   Samplingpoint [53]
   Samplingpoint   Pollutant Start               End                 Value Unit 
   <chr>               <int> <dttm>              <dttm>              <dbl> <chr>
 1 SPO-NL00007_06…      6001 2023-01-01 01:00:00 2023-01-01 02:00:00 131.  ug.m…
 2 SPO-NL00007_06…      6001 2023-01-01 02:00:00 2023-01-01 03:00:00  86.2 ug.m…
 3 SPO-NL00007_06…      6001 2023-01-01 03:00:00 2023-01-01 04:00:00  30.7 ug.m…
 4 SPO-NL00007_06…      6001 2023-01-01 04:00:00 2023-01-01 05:00:00  11   ug.m…
 5 SPO-NL00007_06…      6001 2023-01-01 05:00:00 2023-01-01 06:00:00   9.1 ug.m…
 6 SPO-NL00007_06…      6001 2023-01-01 06:00:00 2023-01-01 07:00:00   5.3 ug.m…
 7 SPO-NL00007_06…      6001 2023-01-01 07:00:00 2023-01-01 08:00:00   2.8 ug.m…
 8 SPO-NL00007_06…      6001 2023-01-01 08:00:00 2023-01-01 09:00:00   2.3 ug.m…
 9 SPO-NL00007_06…      6001 2023-01-01 10:00:00 2023-01-01 11:00:00  -0.6 ug.m…
10 SPO-NL00007_06…      6001 2023-01-01 11:00:00 2023-01-01 12:00:00   1.4 ug.m…
# ℹ 442,863 more rows
# ℹ 8 more variables: AggType <chr>, Validity <int>, Verification <int>,
#   ResultTime <dttm>, DataCapture <dbl>, FkObservationLog <chr>,
#   Longitude <dbl>, Latitude <dbl>

station_locations_sf <- st_as_sf(station_locations, coords = c("Longitude", "Latitude"))
air_sf <- st_as_sf(merged_df, coords = c("Longitude", "Latitude"))
st_crs(air_sf) <- "EPSG:4326"
air_sf

Simple feature collection with 442873 features and 12 fields
Geometry type: POINT
Dimension:     XY
Bounding box:  xmin: 3.8386 ymin: 50.888 xmax: 6.9195 ymax: 53.3304
Geodetic CRS:  WGS 84
# A tibble: 442,873 × 13
# Groups:   Samplingpoint [53]
   Samplingpoint   Pollutant Start               End                 Value Unit 
 * <chr>               <int> <dttm>              <dttm>              <dbl> <chr>
 1 SPO-NL00007_06…      6001 2023-01-01 01:00:00 2023-01-01 02:00:00 131.  ug.m…
 2 SPO-NL00007_06…      6001 2023-01-01 02:00:00 2023-01-01 03:00:00  86.2 ug.m…
 3 SPO-NL00007_06…      6001 2023-01-01 03:00:00 2023-01-01 04:00:00  30.7 ug.m…
 4 SPO-NL00007_06…      6001 2023-01-01 04:00:00 2023-01-01 05:00:00  11   ug.m…
 5 SPO-NL00007_06…      6001 2023-01-01 05:00:00 2023-01-01 06:00:00   9.1 ug.m…
 6 SPO-NL00007_06…      6001 2023-01-01 06:00:00 2023-01-01 07:00:00   5.3 ug.m…
 7 SPO-NL00007_06…      6001 2023-01-01 07:00:00 2023-01-01 08:00:00   2.8 ug.m…
 8 SPO-NL00007_06…      6001 2023-01-01 08:00:00 2023-01-01 09:00:00   2.3 ug.m…
 9 SPO-NL00007_06…      6001 2023-01-01 10:00:00 2023-01-01 11:00:00  -0.6 ug.m…
10 SPO-NL00007_06…      6001 2023-01-01 11:00:00 2023-01-01 12:00:00   1.4 ug.m…
# ℹ 442,863 more rows
# ℹ 7 more variables: AggType <chr>, Validity <int>, Verification <int>,
#   ResultTime <dttm>, DataCapture <dbl>, FkObservationLog <chr>,
#   geometry <POINT [°]>

Then examine the time series

distinct_stations <- unique(air_sf$Samplingpoint)[1:12]
plotting_stations <- air_sf[air_sf$Samplingpoint%in%distinct_stations,]
plotting_stations

Simple feature collection with 98311 features and 12 fields
Geometry type: POINT
Dimension:     XY
Bounding box:  xmin: 4.781 ymin: 50.888 xmax: 5.9869 ymax: 52.394
Geodetic CRS:  WGS 84
# A tibble: 98,311 × 13
# Groups:   Samplingpoint [12]
   Samplingpoint   Pollutant Start               End                 Value Unit 
   <chr>               <int> <dttm>              <dttm>              <dbl> <chr>
 1 SPO-NL00007_06…      6001 2023-01-01 01:00:00 2023-01-01 02:00:00 131.  ug.m…
 2 SPO-NL00007_06…      6001 2023-01-01 02:00:00 2023-01-01 03:00:00  86.2 ug.m…
 3 SPO-NL00007_06…      6001 2023-01-01 03:00:00 2023-01-01 04:00:00  30.7 ug.m…
 4 SPO-NL00007_06…      6001 2023-01-01 04:00:00 2023-01-01 05:00:00  11   ug.m…
 5 SPO-NL00007_06…      6001 2023-01-01 05:00:00 2023-01-01 06:00:00   9.1 ug.m…
 6 SPO-NL00007_06…      6001 2023-01-01 06:00:00 2023-01-01 07:00:00   5.3 ug.m…
 7 SPO-NL00007_06…      6001 2023-01-01 07:00:00 2023-01-01 08:00:00   2.8 ug.m…
 8 SPO-NL00007_06…      6001 2023-01-01 08:00:00 2023-01-01 09:00:00   2.3 ug.m…
 9 SPO-NL00007_06…      6001 2023-01-01 10:00:00 2023-01-01 11:00:00  -0.6 ug.m…
10 SPO-NL00007_06…      6001 2023-01-01 11:00:00 2023-01-01 12:00:00   1.4 ug.m…
# ℹ 98,301 more rows
# ℹ 7 more variables: AggType <chr>, Validity <int>, Verification <int>,
#   ResultTime <dttm>, DataCapture <dbl>, FkObservationLog <chr>,
#   geometry <POINT [°]>
…
air_sf <- air_sf %>% filter(Start==as.POSIXct("2023-01-01 16:00:00  "))
dim(air_sf)

[1] 52 13

air_sf

Simple feature collection with 52 features and 12 fields
Geometry type: POINT
Dimension:     XY
Bounding box:  xmin: 3.8386 ymin: 50.888 xmax: 6.9195 ymax: 53.3304
Geodetic CRS:  WGS 84
# A tibble: 52 × 13
# Groups:   Samplingpoint [52]
   Samplingpoint   Pollutant Start               End                 Value Unit 
 * <chr>               <int> <dttm>              <dttm>              <dbl> <chr>
 1 SPO-NL00007_06…      6001 2023-01-01 16:00:00 2023-01-01 17:00:00  4.4  ug.m…
 2 SPO-NL00012_06…      6001 2023-01-01 16:00:00 2023-01-01 17:00:00  2.9  ug.m…
 3 SPO-NL00014_06…      6001 2023-01-01 16:00:00 2023-01-01 17:00:00  3.8  ug.m…
 4 SPO-NL00016_06…      6001 2023-01-01 16:00:00 2023-01-01 17:00:00  8    ug.m…
 5 SPO-NL00017_06…      6001 2023-01-01 16:00:00 2023-01-01 17:00:00  3.5  ug.m…
 6 SPO-NL00131_06…      6001 2023-01-01 16:00:00 2023-01-01 17:00:00  8.21 ug.m…
 7 SPO-NL00136_06…      6001 2023-01-01 16:00:00 2023-01-01 17:00:00  1.16 ug.m…
 8 SPO-NL00230_06…      6001 2023-01-01 16:00:00 2023-01-01 17:00:00  2.98 ug.m…
 9 SPO-NL00240_06…      6001 2023-01-01 16:00:00 2023-01-01 17:00:00  2.17 ug.m…
10 SPO-NL00241_06…      6001 2023-01-01 16:00:00 2023-01-01 17:00:00  6.33 ug.m…
# ℹ 42 more rows
# ℹ 7 more variables: AggType <chr>, Validity <int>, Verification <int>,
#   ResultTime <dttm>, DataCapture <dbl>, FkObservationLog <chr>,
#   geometry <POINT [°]>
…
