inla_inlabru_lgcp_tutorial_moraga_data
…
df <- occ(query = "solanum", from = "gbif",
          date = c("2015-01-01", "2022-12-31"),
          gbifopts = list(country = "BO"),
          has_coords = TRUE, limit = 1000)
d <- occ2df(df)
d <- st_as_sf(d[, 2:3], coords = c("longitude", "latitude"))
d

Simple feature collection with 287 features and 0 fields
Geometry type: POINT
Dimension:     XY
Bounding box:  xmin: -69.08553 ymin: -21.47522 xmax: -61.29306 ymax: -11.00716
CRS:           NA
# A tibble: 287 × 1
                geometry
                 <POINT>
 1 (-68.67888 -16.55295)
 2 (-67.78711 -15.54597)
 3 (-67.78711 -15.54597)
 4 (-68.03694 -15.65354)
 5 (-67.78711 -15.54597)
 6 (-67.78711 -15.54597)
 7 (-65.23767 -17.40617)
 8 (-65.06749 -18.78869)
 9 (-68.09239 -16.47553)
10 (-68.86473 -16.60027)
# ℹ 277 more rows
…
