4 Implementation of LGCP in INLA and INLABRU – INLA and Log Gaussian Cox Processes: Theory and Application
…
projMercator <- st_crs("EPSG:3857")$proj4string
projMercator

[1] "+proj=merc +a=6378137 +b=6378137 +lat_ts=0 +lon_0=0 +x_0=0 +y_0=0 +k=1 +units=m +nadgrids=@null +wktext +no_defs"

# Observed coordinates
d <- st_transform(d, crs = projMercator)
d

Simple feature collection with 2705 features and 48 fields
Geometry type: POINT
Dimension:     XY
Bounding box:  xmin: 411882.1 ymin: 6577190 xmax: 740274.6 ymax: 7066673
Projected CRS: WGS 84 / Pseudo-Mercator
# A tibble: 2,705 × 49
       gbifID datasetKey    occurrenceID kingdom phylum class order family genus
 *      <dbl> <chr>         <chr>        <chr>   <chr>  <chr> <chr> <chr>  <chr>
 1 4160322107 8a863029-f43… https://obs… Animal… Arthr… Inse… Lepi… Nymph… Para…
 2 4409008265 8a863029-f43… https://obs… Animal… Arthr… Inse… Lepi… Nymph… Para…
 3 4462065068 8a863029-f43… https://obs… Animal… Arthr… Inse… Lepi… Nymph… Para…
 4 4160750394 8a863029-f43… https://obs… Animal… Arthr… Inse… Lepi… Nymph… Para…
 5 4159129901 8a863029-f43… https://obs… Animal… Arthr… Inse… Lepi… Nymph… Para…
 6 4410120094 8a863029-f43… https://obs… Animal… Arthr… Inse… Lepi… Nymph… Para…
 7 4410216900 8a863029-f43… https://obs… Animal… Arthr… Inse… Lepi… Nymph… Para…
 8 4409871777 8a863029-f43… https://obs… Animal… Arthr… Inse… Lepi… Nymph… Para…
 9 4409311703 8a863029-f43… https://obs… Animal… Arthr… Inse… Lepi… Nymph… Para…
10 4158114004 8a863029-f43… https://obs… Animal… Arthr… Inse… Lepi… Nymph… Para…
# ℹ 2,695 more rows
# ℹ 40 more variables: species <chr>, infraspecificEpithet <chr>,
#   taxonRank <chr>, scientificName <chr>, verbatimScientificName <chr>,
#   verbatimScientificNameAuthorship <lgl>, countryCode <chr>, locality <chr>,
#   stateProvince <chr>, occurrenceStatus <chr>, individualCount <dbl>,
#   publishingOrgKey <chr>, coordinateUncertaintyInMeters <dbl>,
#   coordinatePrecision <lgl>, elevation <lgl>, elevationAccuracy <lgl>, …
…
